Tutorial – madpax does stats
…
Participant (ID) → Friend (H_FriendID_) → Time point (Time)

Level 1: Repeated measurements (e.g., closeness over time)

Level 2: Friend-level variables (e.g., how long they’ve known each friend)

Level 3: Participant-level variables (e.g., age, inFSI)

structure_ex2 <- FFH %>%
  filter(ID == "211810")
  
print(structure_ex2)

# A tibble: 28 × 6
   ID     H_FriendID_ Time   H_closeFriend H_Friend_college H_friend_in_Net
   <chr>  <chr>       <fct>          <dbl> <fct>                      <dbl>
 1 211810 1           Intake             5 1                              1
 2 211810 1           Fall               5 1                              1
 3 211810 1           Winter             3 1                              1
 4 211810 1           Spring             4 1                              1
 5 211810 320         Intake             5 1                              1
 6 211810 320         Fall               5 1                              1
 7 211810 320         Winter             5 1                              1
 8 211810 320         Spring             4 1                              1
 9 211810 634         Intake             4 1                              1
10 211810 634         Fall               3 1                              1
# ℹ 18 more rows
…
